Lab3
…
COMENTÁRIOS: Itens mais frequentes devem ser observados com maior cuidado pelo varejista. No entando , é importante ressaltar que o varejista pode querer observar essas informações em uma janela mais recente das vendas. Pressupõe-se que o padrão de compras não mudou ao longo do 1 ano que se tem registro na base

[1] "Data mínima: "

[1] "2010-12-01"

[1] "Data máxima: "

[1] "2011-12-09"

# A tibble: 305 × 2
   Date           n
   <date>     <int>
 1 2010-12-01  1968
 2 2010-12-02  2044
 3 2010-12-03  1117
 4 2010-12-05  2724
 5 2010-12-06  1974
 6 2010-12-07  1133
 7 2010-12-08  2021
 8 2010-12-09  1822
 9 2010-12-10  1449
10 2010-12-12  1448
# ℹ 295 more rows
…
